Project1
…
Warning: package 'tidycensus' was built under R version 4.3.3

For the first step, we are going to build a URL in order to interact with the PUMS’ API. Building this URL will allow us to gain some insight on what all the PUMS’ data may contain. After setting up the URL and making a get rest API call (a request sent to a server asking an API to provide a service/information), we’re going to create a nice tibble to get a glimpse of what our base_url contains (take a look below!).

url <- "https://api.census.gov/data/2022/acs/acs1/pums?"
base_url <- "https://api.census.gov/data/2022/acs/acs1/pums?get=SEX,PWGTP,MAR&SCHL=24"
initial_response <- GET(url = base_url)
initial_parse <- fromJSON(rawToChar(initial_response$content))
col_names <- (initial_parse[1,])
colnames(initial_parse) <- col_names
initial_parse <- initial_parse[-1,]
initial_parse <- as_tibble(initial_parse)
initial_parse

# A tibble: 44,079 × 4
   SEX   PWGTP MAR   SCHL 
   <chr> <chr> <chr> <chr>
 1 2     6     5     24   
 2 2     23    2     24   
 3 1     23    3     24   
 4 1     80    5     24   
 5 1     16    1     24   
 6 1     107   3     24   
 7 2     10    5     24   
 8 1     22    1     24   
 9 2     127   5     24   
10 2     46    5     24   
# ℹ 44,069 more rows

base_url <- "https://api.census.gov/data/2022/acs/acs1/pums?get=SEX,PWGTP,MAR&SCHL=24"
initial_response <- GET(url = base_url)
initial_parse <- fromJSON(rawToChar(initial_response$content))
col_names <- (initial_parse[1,])
colnames(initial_parse) <- col_names
initial_parse <- initial_parse[-1,]
initial_parse <- as_tibble(initial_parse)
initial_parse

# A tibble: 44,079 × 4
   SEX   PWGTP MAR   SCHL 
   <chr> <chr> <chr> <chr>
 1 2     6     5     24   
 2 2     23    2     24   
 3 1     23    3     24   
 4 1     80    5     24   
 5 1     16    1     24   
 6 1     107   3     24   
 7 2     10    5     24   
 8 1     22    1     24   
 9 2     127   5     24   
10 2     46    5     24   
# ℹ 44,069 more rows
…
